%YAML 1.1
%TAG !u! tag:unity3d.com,2011:
--- !u!114 &11400000
MonoBehaviour:
  m_ObjectHideFlags: 0
  m_PrefabParentObject: {fileID: 0}
  m_PrefabInternal: {fileID: 0}
  m_GameObject: {fileID: 0}
  m_Enabled: 1
  m_EditorHideFlags: 0
  m_Script: {fileID: 11500000, guid: b0254930d23f54545a6b9adf33983dee, type: 3}
  m_Name: DefaultKeymap
  m_EditorClassIdentifier: 
  Attack_0: 49
  Attack_1: 50
  Attack_2: 51
  Attack_3: 52
  Attack_4: 53
  Target: 323
  Move: 324
  Menu: 27
