%YAML 1.1
%TAG !u! tag:unity3d.com,2011:
--- !u!114 &11400000
MonoBehaviour:
  m_ObjectHideFlags: 0
  m_PrefabParentObject: {fileID: 0}
  m_PrefabInternal: {fileID: 0}
  m_GameObject: {fileID: 0}
  m_Enabled: 1
  m_EditorHideFlags: 0
  m_Script: {fileID: 11500000, guid: 5a0ef5610be75f34793161b4202829dd, type: 3}
  m_Name: LifeBlood
  m_EditorClassIdentifier: 
  Type: DOT
  DOT_ID: 
  DOTName: LifeBlood
  ToolTip: its a HOT
  Icon: {fileID: 0}
  Target: {fileID: 0}
  Source: {fileID: 0}
  Damage: 50
  IsHeal: 1
  CurrentDamage: 0
  UseParticle: 1
  Particle: {fileID: 100006, guid: 0438351a6e6422d43a09930e9be00ee9, type: 2}
  ParticleDuration: 5
  Duration: 10
  Ticks: 0
  Stackable: 1
  StackLimit: 2
  CurrentStacks: 0
  CastTime: 1
  CoolDown: 0
  CoolDownRemaining: 0
  ReadyToCast: 1
  HostileOnly: 0
  FriendlyOnly: 1
  ResourceCost: 0.1
  ResourceType: {fileID: 11400000, guid: e5b51aaf3e871194b9b0741c2def05e0, type: 2}
  DamageType: {fileID: 11400000, guid: 5b5925d1503fa294a8573d305450d89b, type: 2}
  MaxRange: 50
  Cast: {fileID: 0}
  Land: {fileID: 0}
