%YAML 1.1
%TAG !u! tag:unity3d.com,2011:
--- !u!114 &11400000
MonoBehaviour:
  m_ObjectHideFlags: 0
  m_PrefabParentObject: {fileID: 0}
  m_PrefabInternal: {fileID: 0}
  m_GameObject: {fileID: 0}
  m_Enabled: 1
  m_EditorHideFlags: 0
  m_Script: {fileID: 11500000, guid: 59784759b55c0dc42a9d175b2bea3c0a, type: 3}
  m_Name: Kings
  m_EditorClassIdentifier: 
  Type: Buff
  BuffID: 
  BuffName: Blessing of Kings
  ToolTip: Increase stats by 10%
  Icon: {fileID: 0}
  Target: {fileID: 0}
  Source: {fileID: 0}
  SourcePowerOnCast: 0
  Health_Multiplier: 0.1
  Speed_Multiplier: 0.1
  Power_Multiplier: 0.1
  Exp_Multiplier: 0.1
  Accuracy: 0.1
  UseParticle: 1
  Particle: {fileID: 100010, guid: 645413a00f7bd0242bbd6d0e5eb6f439, type: 2}
  ParticleDuration: 5
  Duration: 10
  Ticks: 0
  Imediate: 1
  Over_Time: 0
  Falling: 0
  Applied: 0
  Stackable: 1
  StackLimit: 2
  CurrentStacks: 0
  HostileOnly: 1
  FriendlyOnly: 0
  CastTime: 1.5
  CoolDown: 0
  CoolDownRemaining: 0
  ReadyToCast: 1
  MaxRange: 45
  ResourceCost: 0.05
  ResourceType: {fileID: 11400000, guid: e5b51aaf3e871194b9b0741c2def05e0, type: 2}
  Cast: {fileID: 0}
  Land: {fileID: 0}
