%YAML 1.1
%TAG !u! tag:unity3d.com,2011:
--- !u!114 &11400000
MonoBehaviour:
  m_ObjectHideFlags: 0
  m_PrefabParentObject: {fileID: 0}
  m_PrefabInternal: {fileID: 0}
  m_GameObject: {fileID: 0}
  m_Enabled: 1
  m_EditorHideFlags: 0
  m_Script: {fileID: 11500000, guid: 4b14903a48c944549b787abb77701c68, type: 3}
  m_Name: 1
  m_EditorClassIdentifier: 
  Source: {x: 0, y: 0, z: 0}
  Target: {x: 0, y: 0, z: 0}
  Points:
  - {x: -18.69, y: 1, z: 13.5}
  - {x: -16.24044, y: 4.4444294, z: 4.8680563}
  - {x: -4.2266865, y: 4.076054, z: 11.9584675}
  - {x: 19.62741, y: 1, z: 13.5}
  SplineLength: 38.317413
  OriginalLength: 0
  SplineScale: 0
  LenghtVector: {x: 1, y: 0, z: 0}
  ControlPointLength1: 9.611186
  ControlPointVector1: {x: 0.25486556, y: 0.35837716, z: -0.8981143}
  ControlPointLength2: 24.100962
  ControlPointVector2: {x: 0.98975706, y: -0.127632, z: 0.063961454}
  OscillateH: 0
  OscillateV: 0
  OscillationRangeH: 0
  OscillationRangeV: 0
  OscillationSpeedH: 0
  OscillationSpeedV: 0
  Orbit: 0
  OrbitDistance: 0
  OrbitSpeed: 0
  FollowSpline: 0
  RandomV: 0
  RandomH: 0.437
  RandomD: 0.549
  Reflection: 0
  Randomize: 0
  Caster: {fileID: 0}
  Victim: {fileID: 0}
  T: 0
